Analysis of pTSA1-mCh-tTSA1 RT-qPCR data sets with two experimental repllicates
…
          # Below is to create columns for strain information using details from the 'Strain' column
                    separate(strain, remove = FALSE,sep="-",into=c("promoter","mCherry","terminator")) %>%
                    separate(terminator, remove = FALSE, sep="_",into=c("terminator","construct")) %>%
                    mutate(construct = factor(construct,levels = c("modE","modD","modC","modB","modA","mod0","WT")),remove = FALSE)%>%
                    unite(pro_mCh,promoter,mCherry,sep="-", remove=FALSE)%>%
                    unite(ter_mod,terminator,construct,sep="_", remove=FALSE) %>%
                    mutate(tro_mCh = factor(pro_mCh,levels = c("pTSA1-mCherry","pPGK1-mCherry"))) %>% 
                    mutate(ter_mod = factor(ter_mod,levels=c("tTSA1_modC","tTSA1_modE","tTSA1_modD","tTSA1_modA",
                                           "tTSA1_modB","tTSA1_mod0","tTSA1_WT")))

# to verify the calculation done 
platesnorm_mod0_median %>% select(strain, bio_rep, median_cq, RNA_abundance)

## # A tibble: 42 x 5
## # Groups:   strain, target_id, bio_rep [42]
##    target_id strain                   bio_rep median_cq RNA_abundance
##    <fct>     <fct>                    <fct>       <dbl>         <dbl>
##  1 mCh-7     pTSA1-mCherry-tTSA1_WT   BioRep1  1.04             0.487
##  2 mCh-7     pTSA1-mCherry-tTSA1_WT   BioRep2  0.0554           0.962
##  3 mCh-7     pTSA1-mCherry-tTSA1_WT   BioRep3  0.364            0.777
##  4 mCh-7     pTSA1-mCherry-tTSA1_WT   BioRep4  0.298            0.813
##  5 mCh-7     pTSA1-mCherry-tTSA1_WT   BioRep5  0.209            0.865
##  6 mCh-7     pTSA1-mCherry-tTSA1_WT   BioRep6 -0.0435           1.03 
##  7 mCh-7     pTSA1-mCherry-tTSA1_mod0 BioRep1  0.0443           0.970
##  8 mCh-7     pTSA1-mCherry-tTSA1_mod0 BioRep2  0.000926         0.999
##  9 mCh-7     pTSA1-mCherry-tTSA1_mod0 BioRep3  0.0265           0.982
## 10 mCh-7     pTSA1-mCherry-tTSA1_mod0 BioRep4  0.0620           0.958
## #  with 32 more rows
…
