RT-qPCR of pRPS3-mCh-tRPS3mod (2 reps) and pPGK1-mCh-tRPS3mod (2 reps)
…
print(plateplanR3_1)

## # A tibble: 384 x 9
##    Well  WellR WellC SampleID       Strain    BioRep Type  TechRep TargetID
##    <chr> <fct> <fct> <chr>          <fct>     <fct>  <fct> <fct>   <fct>   
##  1 A1    A     1     pRPS3-tRPS3_W pRPS3-tR BioRe +RT   1       mCh-7   
##  2 A2    A     2     pRPS3-tRPS3_W pRPS3-tR BioRe +RT   1       mCh-7   
##  3 A3    A     3     pRPS3-tRPS3_W pRPS3-tR BioRe +RT   1       mCh-7   
##  4 A4    A     4     pRPS3-tRPS3_m pRPS3-tR BioRe +RT   1       mCh-7   
##  5 A5    A     5     pRPS3-tRPS3_m pRPS3-tR BioRe +RT   1       mCh-7   
##  6 A6    A     6     pRPS3-tRPS3_m pRPS3-tR BioRe +RT   1       mCh-7   
##  7 A7    A     7     pRPS3-tRPS3_m pRPS3-tR BioRe +RT   1       mCh-7   
##  8 A8    A     8     pRPS3-tRPS3_m pRPS3-tR BioRe +RT   1       mCh-7   
##  9 A9    A     9     pRPS3-tRPS3_m pRPS3-tR BioRe +RT   1       mCh-7   
## 10 A10   A     10    pRPS3-tRPS3_m pRPS3-tR BioRe +RT   1       mCh-7   
## #  with 374 more rows
…
platesP1_2 <- read_tsv( "data/JA_20200311-pPGK1-tRPS3mod-n2-ct.txt",skip=1) %>%
    mutate(Well=Pos,Cq=Cp,expRep = 2) %>%
    left_join(plateplanP1_2)

plates <- bind_rows(platesR3_1,platesR3_2,platesP1_1,platesP1_2) 

Check that we have the right numbers of sample for each replicate

Note: incomplete.

plates %>%
  group_by(Strain,TargetID) %>%
  tally

## # A tibble: 60 x 3
## # Groups:   Strain [15]
##    Strain           TargetID     n
##    <chr>            <fct>    <int>
##  1 POT1-ccdB        mCh-7       48
##  2 POT1-ccdB        PGK1-ORF    48
##  3 POT1-ccdB        RPS3-ORF    48
##  4 POT1-ccdB        URA3-ORF    48
##  5 pPGK1-tRPS3_mod0 mCh-7       24
##  6 pPGK1-tRPS3_mod0 PGK1-ORF    24
##  7 pPGK1-tRPS3_mod0 RPS3-ORF    24
##  8 pPGK1-tRPS3_mod0 URA3-ORF    24
##  9 pPGK1-tRPS3_modA mCh-7       24
## 10 pPGK1-tRPS3_modA PGK1-ORF    24
## #  with 50 more rows
…
